{
    "builders": [
        {
            "type": "amazon-ebs",
            "access_key": "",
            "secret_key": "",
            "region": "us-east-2",
            "ami_name": "django-AMI",
            "source_ami": "ami-077e31c4939f6a2f3",
            "instance_type": "t2.micro",
            "ssh_username": "ec2-user"
        }
    ],
    "provisioners": [
        {
            "type": "shell",
            "script": "packer/install.sh"
        }
      ]
}
